﻿Kaunas
D,Reksas,823,Buldogas,Jonas,867424992,2015-07-24,TRUE
C,Morkus,658,Siamo,Antanas,865412654,2014-11-24
D,Keksas,456,Taksas,Petras,866612345,2014-12-01,FALSE
C,Pukė,656,Siamo,Petras,866612345,2014-12-05
C,Taira,382,Rusų mėlynoji,Dangira,861253226,2012-05-11
C,Tigris,848,Bengalijos,Juozas,867892544,2013-07-21
C,Miaukis,572,Britų trumpapalukės,Ona,861588345,2010-11-04
D,Miledi,541,Jorkšyro terjeras,Aurelija,867897315,2010-11-14,FALSE
D,Farlis,921,Sibiro haskis,Artûras,8687990321,2015-01-02,FALSE
D,Agatas,922,Sibiro haskis,Artûras,8687990321,2015-01-02,FALSE
D,Meškis,534,Laika,Gintas,869811065,2012-04-12,TRUE
D,Bumsis,724,Biglis,Donata,861489752,2011-03-25,FALSE